{
    "ua": {
        "weekDays": {
            "Sun": "Нд",
            "Mon": "Пн",
            "Tue": "Вт",
            "Wed": "Ср",
            "Thu": "Чт",
            "Fri": "Пт",
            "Sat": "Сб"
        },
        "dateMonths": {
            "long": {
                "Jan": "Січень",
                "Feb": "Лютий",
                "Mar": "Березень",
                "Apr": "Квітень",
                "May": "Травень",
                "Jun": "Червень",
                "Jul": "Липень",
                "Aug": "Серпень",
                "Sep": "Вересень",
                "Oct": "Жовтень",
                "Nov": "Листопад",
                "Dec": "Грудень"
            },
            "short": {
                "Jan": "Січ",
                "Feb": "Лют",
                "Mar": "Бер",
                "Apr": "Квіт",
                "May": "Трав",
                "Jun": "Чер",
                "Jul": "Лип",
                "Aug": "Сер",
                "Sep": "Вер",
                "Oct": "Жов",
                "Nov": "Лис",
                "Dec": "Груд"
            }
        }
    },
    "en": {
        "weekDays": {
            "Sun": "Sun",
            "Mon": "Mon",
            "Tue": "Tue",
            "Wed": "Wed",
            "Thu": "Thu",
            "Fri": "Fri",
            "Sat": "Sat"
        },
        "dateMonths": {
            "long": {
                "Jan": "January",
                "Feb": "February",
                "Mar": "March",
                "Apr": "April",
                "May": "May",
                "Jun": "June",
                "Jul": "July",
                "Aug": "August",
                "Sep": "September",
                "Oct": "October",
                "Nov": "November",
                "Dec": "December"
            },
            "short": {
                "Jan": "Jan",
                "Feb": "Feb",
                "Mar": "Mar",
                "Apr": "Apr",
                "May": "May",
                "Jun": "Jun",
                "Jul": "Jul",
                "Aug": "Aug",
                "Sep": "Sep",
                "Oct": "Oct",
                "Nov": "Nov",
                "Dec": "Dec"
            }
        }
    }
}